ALU/ALU_wave.vcd
$date
	Wed Oct  2 20:00:26 2019
$end
$version
	Icarus Verilog
$end
$timescale
	1s
$end
$scope module ALU_tb $end
$var wire 32 ! out [31:0] $end
$var wire 1 " all_zeroes $end
$var reg 32 # a [31:0] $end
$var reg 32 $ b [31:0] $end
$var reg 1 % clk $end
$var reg 4 & op [3:0] $end
$scope module DUT $end
$var wire 32 ' a [31:0] $end
$var wire 1 " all_zeroes $end
$var wire 32 ( b [31:0] $end
$var wire 4 ) op [3:0] $end
$var wire 32 * out [31:0] $end
$var wire 1 + not_all_zeroes $end
$var wire 32 , logic_out [31:0] $end
$var wire 32 - arithmetic_out [31:0] $end
$scope module any32 $end
$var wire 32 . in [31:0] $end
$var wire 1 + out $end
$var wire 1 / r1 $end
$var wire 1 0 r0 $end
$scope module any0 $end
$var wire 16 1 in [15:0] $end
$var wire 1 0 out $end
$var wire 1 2 r1 $end
$var wire 1 3 r0 $end
$scope module any0 $end
$var wire 8 4 in [7:0] $end
$var wire 1 3 out $end
$var wire 1 5 r1 $end
$var wire 1 6 r0 $end
$scope module any0 $end
$var wire 4 7 in [3:0] $end
$var wire 1 6 out $end
$var wire 1 8 r1 $end
$var wire 1 9 r0 $end
$scope module any0 $end
$var wire 2 : in [1:0] $end
$var wire 1 9 out $end
$upscope $end
$scope module any1 $end
$var wire 2 ; in [1:0] $end
$var wire 1 8 out $end
$upscope $end
$upscope $end
$scope module any1 $end
$var wire 4 < in [3:0] $end
$var wire 1 5 out $end
$var wire 1 = r1 $end
$var wire 1 > r0 $end
$scope module any0 $end
$var wire 2 ? in [1:0] $end
$var wire 1 > out $end
$upscope $end
$scope module any1 $end
$var wire 2 @ in [1:0] $end
$var wire 1 = out $end
$upscope $end
$upscope $end
$upscope $end
$scope module any1 $end
$var wire 8 A in [7:0] $end
$var wire 1 2 out $end
$var wire 1 B r1 $end
$var wire 1 C r0 $end
$scope module any0 $end
$var wire 4 D in [3:0] $end
$var wire 1 C out $end
$var wire 1 E r1 $end
$var wire 1 F r0 $end
$scope module any0 $end
$var wire 2 G in [1:0] $end
$var wire 1 F out $end
$upscope $end
$scope module any1 $end
$var wire 2 H in [1:0] $end
$var wire 1 E out $end
$upscope $end
$upscope $end
$scope module any1 $end
$var wire 4 I in [3:0] $end
$var wire 1 B out $end
$var wire 1 J r1 $end
$var wire 1 K r0 $end
$scope module any0 $end
$var wire 2 L in [1:0] $end
$var wire 1 K out $end
$upscope $end
$scope module any1 $end
$var wire 2 M in [1:0] $end
$var wire 1 J out $end
$upscope $end
$upscope $end
$upscope $end
$upscope $end
$scope module any1 $end
$var wire 16 N in [15:0] $end
$var wire 1 / out $end
$var wire 1 O r1 $end
$var wire 1 P r0 $end
$scope module any0 $end
$var wire 8 Q in [7:0] $end
$var wire 1 P out $end
$var wire 1 R r1 $end
$var wire 1 S r0 $end
$scope module any0 $end
$var wire 4 T in [3:0] $end
$var wire 1 S out $end
$var wire 1 U r1 $end
$var wire 1 V r0 $end
$scope module any0 $end
$var wire 2 W in [1:0] $end
$var wire 1 V out $end
$upscope $end
$scope module any1 $end
$var wire 2 X in [1:0] $end
$var wire 1 U out $end
$upscope $end
$upscope $end
$scope module any1 $end
$var wire 4 Y in [3:0] $end
$var wire 1 R out $end
$var wire 1 Z r1 $end
$var wire 1 [ r0 $end
$scope module any0 $end
$var wire 2 \ in [1:0] $end
$var wire 1 [ out $end
$upscope $end
$scope module any1 $end
$var wire 2 ] in [1:0] $end
$var wire 1 Z out $end
$upscope $end
$upscope $end
$upscope $end
$scope module any1 $end
$var wire 8 ^ in [7:0] $end
$var wire 1 O out $end
$var wire 1 _ r1 $end
$var wire 1 ` r0 $end
$scope module any0 $end
$var wire 4 a in [3:0] $end
$var wire 1 ` out $end
$var wire 1 b r1 $end
$var wire 1 c r0 $end
$scope module any0 $end
$var wire 2 d in [1:0] $end
$var wire 1 c out $end
$upscope $end
$scope module any1 $end
$var wire 2 e in [1:0] $end
$var wire 1 b out $end
$upscope $end
$upscope $end
$scope module any1 $end
$var wire 4 f in [3:0] $end
$var wire 1 _ out $end
$var wire 1 g r1 $end
$var wire 1 h r0 $end
$scope module any0 $end
$var wire 2 i in [1:0] $end
$var wire 1 h out $end
$upscope $end
$scope module any1 $end
$var wire 2 j in [1:0] $end
$var wire 1 g out $end
$upscope $end
$upscope $end
$upscope $end
$upscope $end
$upscope $end
$scope module ap $end
$var wire 32 k a [31:0] $end
$var wire 32 l b [31:0] $end
$var wire 2 m op [1:0] $end
$var wire 32 n plus_a_b [31:0] $end
$var wire 32 o out [31:0] $end
$var wire 32 p negated_b [31:0] $end
$var wire 32 q evaluated_b [31:0] $end
$scope module add_a_ev $end
$var wire 32 r a [31:0] $end
$var wire 32 s b [31:0] $end
$var wire 32 t out [31:0] $end
$var wire 31 u carrys [30:0] $end
$var wire 31 v carry_propagate [30:0] $end
$var wire 31 w carry_generate [30:0] $end
$scope begin genblk1[0] $end
$upscope $end
$scope begin genblk1[1] $end
$upscope $end
$scope begin genblk1[2] $end
$upscope $end
$scope begin genblk1[3] $end
$upscope $end
$scope begin genblk1[4] $end
$upscope $end
$scope begin genblk1[5] $end
$upscope $end
$scope begin genblk1[6] $end
$upscope $end
$scope begin genblk1[7] $end
$upscope $end
$scope begin genblk1[8] $end
$upscope $end
$scope begin genblk1[9] $end
$upscope $end
$scope begin genblk1[10] $end
$upscope $end
$scope begin genblk1[11] $end
$upscope $end
$scope begin genblk1[12] $end
$upscope $end
$scope begin genblk1[13] $end
$upscope $end
$scope begin genblk1[14] $end
$upscope $end
$scope begin genblk1[15] $end
$upscope $end
$scope begin genblk1[16] $end
$upscope $end
$scope begin genblk1[17] $end
$upscope $end
$scope begin genblk1[18] $end
$upscope $end
$scope begin genblk1[19] $end
$upscope $end
$scope begin genblk1[20] $end
$upscope $end
$scope begin genblk1[21] $end
$upscope $end
$scope begin genblk1[22] $end
$upscope $end
$scope begin genblk1[23] $end
$upscope $end
$scope begin genblk1[24] $end
$upscope $end
$scope begin genblk1[25] $end
$upscope $end
$scope begin genblk1[26] $end
$upscope $end
$scope begin genblk1[27] $end
$upscope $end
$scope begin genblk1[28] $end
$upscope $end
$scope begin genblk1[29] $end
$upscope $end
$scope begin genblk1[30] $end
$upscope $end
$scope begin genblk2[0] $end
$upscope $end
$scope begin genblk2[1] $end
$upscope $end
$scope begin genblk2[2] $end
$upscope $end
$scope begin genblk2[3] $end
$upscope $end
$scope begin genblk2[4] $end
$upscope $end
$scope begin genblk2[5] $end
$upscope $end
$scope begin genblk2[6] $end
$upscope $end
$scope begin genblk2[7] $end
$upscope $end
$scope begin genblk2[8] $end
$upscope $end
$scope begin genblk2[9] $end
$upscope $end
$scope begin genblk2[10] $end
$upscope $end
$scope begin genblk2[11] $end
$upscope $end
$scope begin genblk2[12] $end
$upscope $end
$scope begin genblk2[13] $end
$upscope $end
$scope begin genblk2[14] $end
$upscope $end
$scope begin genblk2[15] $end
$upscope $end
$scope begin genblk2[16] $end
$upscope $end
$scope begin genblk2[17] $end
$upscope $end
$scope begin genblk2[18] $end
$upscope $end
$scope begin genblk2[19] $end
$upscope $end
$scope begin genblk2[20] $end
$upscope $end
$scope begin genblk2[21] $end
$upscope $end
$scope begin genblk2[22] $end
$upscope $end
$scope begin genblk2[23] $end
$upscope $end
$scope begin genblk2[24] $end
$upscope $end
$scope begin genblk2[25] $end
$upscope $end
$scope begin genblk2[26] $end
$upscope $end
$scope begin genblk2[27] $end
$upscope $end
$scope begin genblk2[28] $end
$upscope $end
$scope begin genblk2[29] $end
$upscope $end
$scope begin genblk2[30] $end
$upscope $end
$scope begin genblk3[1] $end
$upscope $end
$scope begin genblk3[2] $end
$upscope $end
$scope begin genblk3[3] $end
$upscope $end
$scope begin genblk3[4] $end
$upscope $end
$scope begin genblk3[5] $end
$upscope $end
$scope begin genblk3[6] $end
$upscope $end
$scope begin genblk3[7] $end
$upscope $end
$scope begin genblk3[8] $end
$upscope $end
$scope begin genblk3[9] $end
$upscope $end
$scope begin genblk3[10] $end
$upscope $end
$scope begin genblk3[11] $end
$upscope $end
$scope begin genblk3[12] $end
$upscope $end
$scope begin genblk3[13] $end
$upscope $end
$scope begin genblk3[14] $end
$upscope $end
$scope begin genblk3[15] $end
$upscope $end
$scope begin genblk3[16] $end
$upscope $end
$scope begin genblk3[17] $end
$upscope $end
$scope begin genblk3[18] $end
$upscope $end
$scope begin genblk3[19] $end
$upscope $end
$scope begin genblk3[20] $end
$upscope $end
$scope begin genblk3[21] $end
$upscope $end
$scope begin genblk3[22] $end
$upscope $end
$scope begin genblk3[23] $end
$upscope $end
$scope begin genblk3[24] $end
$upscope $end
$scope begin genblk3[25] $end
$upscope $end
$scope begin genblk3[26] $end
$upscope $end
$scope begin genblk3[27] $end
$upscope $end
$scope begin genblk3[28] $end
$upscope $end
$scope begin genblk3[29] $end
$upscope $end
$scope begin genblk3[30] $end
$upscope $end
$scope begin genblk4[1] $end
$upscope $end
$scope begin genblk4[2] $end
$upscope $end
$scope begin genblk4[3] $end
$upscope $end
$scope begin genblk4[4] $end
$upscope $end
$scope begin genblk4[5] $end
$upscope $end
$scope begin genblk4[6] $end
$upscope $end
$scope begin genblk4[7] $end
$upscope $end
$scope begin genblk4[8] $end
$upscope $end
$scope begin genblk4[9] $end
$upscope $end
$scope begin genblk4[10] $end
$upscope $end
$scope begin genblk4[11] $end
$upscope $end
$scope begin genblk4[12] $end
$upscope $end
$scope begin genblk4[13] $end
$upscope $end
$scope begin genblk4[14] $end
$upscope $end
$scope begin genblk4[15] $end
$upscope $end
$scope begin genblk4[16] $end
$upscope $end
$scope begin genblk4[17] $end
$upscope $end
$scope begin genblk4[18] $end
$upscope $end
$scope begin genblk4[19] $end
$upscope $end
$scope begin genblk4[20] $end
$upscope $end
$scope begin genblk4[21] $end
$upscope $end
$scope begin genblk4[22] $end
$upscope $end
$scope begin genblk4[23] $end
$upscope $end
$scope begin genblk4[24] $end
$upscope $end
$scope begin genblk4[25] $end
$upscope $end
$scope begin genblk4[26] $end
$upscope $end
$scope begin genblk4[27] $end
$upscope $end
$scope begin genblk4[28] $end
$upscope $end
$scope begin genblk4[29] $end
$upscope $end
$scope begin genblk4[30] $end
$upscope $end
$scope begin genblk4[31] $end
$upscope $end
$upscope $end
$scope module neg_b $end
$var wire 32 x in [31:0] $end
$var wire 32 y in_negated [31:0] $end
$var wire 32 z out [31:0] $end
$scope module ad $end
$var wire 32 { a [31:0] $end
$var wire 32 | b [31:0] $end
$var wire 32 } out [31:0] $end
$var wire 31 ~ carrys [30:0] $end
$var wire 31 !" carry_propagate [30:0] $end
$var wire 31 "" carry_generate [30:0] $end
$scope begin genblk1[0] $end
$upscope $end
$scope begin genblk1[1] $end
$upscope $end
$scope begin genblk1[2] $end
$upscope $end
$scope begin genblk1[3] $end
$upscope $end
$scope begin genblk1[4] $end
$upscope $end
$scope begin genblk1[5] $end
$upscope $end
$scope begin genblk1[6] $end
$upscope $end
$scope begin genblk1[7] $end
$upscope $end
$scope begin genblk1[8] $end
$upscope $end
$scope begin genblk1[9] $end
$upscope $end
$scope begin genblk1[10] $end
$upscope $end
$scope begin genblk1[11] $end
$upscope $end
$scope begin genblk1[12] $end
$upscope $end
$scope begin genblk1[13] $end
$upscope $end
$scope begin genblk1[14] $end
$upscope $end
$scope begin genblk1[15] $end
$upscope $end
$scope begin genblk1[16] $end
$upscope $end
$scope begin genblk1[17] $end
$upscope $end
$scope begin genblk1[18] $end
$upscope $end
$scope begin genblk1[19] $end
$upscope $end
$scope begin genblk1[20] $end
$upscope $end
$scope begin genblk1[21] $end
$upscope $end
$scope begin genblk1[22] $end
$upscope $end
$scope begin genblk1[23] $end
$upscope $end
$scope begin genblk1[24] $end
$upscope $end
$scope begin genblk1[25] $end
$upscope $end
$scope begin genblk1[26] $end
$upscope $end
$scope begin genblk1[27] $end
$upscope $end
$scope begin genblk1[28] $end
$upscope $end
$scope begin genblk1[29] $end
$upscope $end
$scope begin genblk1[30] $end
$upscope $end
$scope begin genblk2[0] $end
$upscope $end
$scope begin genblk2[1] $end
$upscope $end
$scope begin genblk2[2] $end
$upscope $end
$scope begin genblk2[3] $end
$upscope $end
$scope begin genblk2[4] $end
$upscope $end
$scope begin genblk2[5] $end
$upscope $end
$scope begin genblk2[6] $end
$upscope $end
$scope begin genblk2[7] $end
$upscope $end
$scope begin genblk2[8] $end
$upscope $end
$scope begin genblk2[9] $end
$upscope $end
$scope begin genblk2[10] $end
$upscope $end
$scope begin genblk2[11] $end
$upscope $end
$scope begin genblk2[12] $end
$upscope $end
$scope begin genblk2[13] $end
$upscope $end
$scope begin genblk2[14] $end
$upscope $end
$scope begin genblk2[15] $end
$upscope $end
$scope begin genblk2[16] $end
$upscope $end
$scope begin genblk2[17] $end
$upscope $end
$scope begin genblk2[18] $end
$upscope $end
$scope begin genblk2[19] $end
$upscope $end
$scope begin genblk2[20] $end
$upscope $end
$scope begin genblk2[21] $end
$upscope $end
$scope begin genblk2[22] $end
$upscope $end
$scope begin genblk2[23] $end
$upscope $end
$scope begin genblk2[24] $end
$upscope $end
$scope begin genblk2[25] $end
$upscope $end
$scope begin genblk2[26] $end
$upscope $end
$scope begin genblk2[27] $end
$upscope $end
$scope begin genblk2[28] $end
$upscope $end
$scope begin genblk2[29] $end
$upscope $end
$scope begin genblk2[30] $end
$upscope $end
$scope begin genblk3[1] $end
$upscope $end
$scope begin genblk3[2] $end
$upscope $end
$scope begin genblk3[3] $end
$upscope $end
$scope begin genblk3[4] $end
$upscope $end
$scope begin genblk3[5] $end
$upscope $end
$scope begin genblk3[6] $end
$upscope $end
$scope begin genblk3[7] $end
$upscope $end
$scope begin genblk3[8] $end
$upscope $end
$scope begin genblk3[9] $end
$upscope $end
$scope begin genblk3[10] $end
$upscope $end
$scope begin genblk3[11] $end
$upscope $end
$scope begin genblk3[12] $end
$upscope $end
$scope begin genblk3[13] $end
$upscope $end
$scope begin genblk3[14] $end
$upscope $end
$scope begin genblk3[15] $end
$upscope $end
$scope begin genblk3[16] $end
$upscope $end
$scope begin genblk3[17] $end
$upscope $end
$scope begin genblk3[18] $end
$upscope $end
$scope begin genblk3[19] $end
$upscope $end
$scope begin genblk3[20] $end
$upscope $end
$scope begin genblk3[21] $end
$upscope $end
$scope begin genblk3[22] $end
$upscope $end
$scope begin genblk3[23] $end
$upscope $end
$scope begin genblk3[24] $end
$upscope $end
$scope begin genblk3[25] $end
$upscope $end
$scope begin genblk3[26] $end
$upscope $end
$scope begin genblk3[27] $end
$upscope $end
$scope begin genblk3[28] $end
$upscope $end
$scope begin genblk3[29] $end
$upscope $end
$scope begin genblk3[30] $end
$upscope $end
$scope begin genblk4[1] $end
$upscope $end
$scope begin genblk4[2] $end
$upscope $end
$scope begin genblk4[3] $end
$upscope $end
$scope begin genblk4[4] $end
$upscope $end
$scope begin genblk4[5] $end
$upscope $end
$scope begin genblk4[6] $end
$upscope $end
$scope begin genblk4[7] $end
$upscope $end
$scope begin genblk4[8] $end
$upscope $end
$scope begin genblk4[9] $end
$upscope $end
$scope begin genblk4[10] $end
$upscope $end
$scope begin genblk4[11] $end
$upscope $end
$scope begin genblk4[12] $end
$upscope $end
$scope begin genblk4[13] $end
$upscope $end
$scope begin genblk4[14] $end
$upscope $end
$scope begin genblk4[15] $end
$upscope $end
$scope begin genblk4[16] $end
$upscope $end
$scope begin genblk4[17] $end
$upscope $end
$scope begin genblk4[18] $end
$upscope $end
$scope begin genblk4[19] $end
$upscope $end
$scope begin genblk4[20] $end
$upscope $end
$scope begin genblk4[21] $end
$upscope $end
$scope begin genblk4[22] $end
$upscope $end
$scope begin genblk4[23] $end
$upscope $end
$scope begin genblk4[24] $end
$upscope $end
$scope begin genblk4[25] $end
$upscope $end
$scope begin genblk4[26] $end
$upscope $end
$scope begin genblk4[27] $end
$upscope $end
$scope begin genblk4[28] $end
$upscope $end
$scope begin genblk4[29] $end
$upscope $end
$scope begin genblk4[30] $end
$upscope $end
$scope begin genblk4[31] $end
$upscope $end
$upscope $end
$upscope $end
$upscope $end
$scope module lp $end
$var wire 32 #" a [31:0] $end
$var wire 32 $" b [31:0] $end
$var wire 2 %" op [1:0] $end
$var wire 32 &" temp_or [31:0] $end
$var wire 32 '" temp_xor_and [31:0] $end
$var wire 32 (" temp_nor_or [31:0] $end
$var wire 32 )" out [31:0] $end
$upscope $end
$upscope $end
$upscope $end
$enddefinitions $end
#0
$dumpvars
b0 )"
b100010001 ("
b0 '"
b100010001 &"
b0 %"
b100000000 $"
b10001 #"
b1 ""
b1111111111111111111111011111111 !"
b11111111 ~
b11111111111111111111111100000000 }
b1 |
b11111111111111111111111011111111 {
b11111111111111111111111100000000 z
b11111111111111111111111011111111 y
b100000000 x
b0 w
b100010001 v
b0 u
b100010001 t
b100000000 s
b10001 r
b100000000 q
b11111111111111111111111100000000 p
b100010001 o
b100010001 n
b0 m
b100000000 l
b10001 k
b0 j
b0 i
0h
0g
b0 f
b0 e
b0 d
0c
0b
b0 a
0`
0_
b0 ^
b0 ]
b0 \
0[
0Z
b0 Y
b0 X
b0 W
0V
0U
b0 T
0S
0R
b0 Q
0P
0O
b0 N
b0 M
b0 L
0K
0J
b0 I
b0 H
b1 G
1F
0E
b1 D
1C
0B
b1 A
b0 @
b1 ?
1>
0=
b1 <
b0 ;
b1 :
19
08
b1 7
16
15
b10001 4
13
12
b100010001 1
10
0/
b100010001 .
b100010001 -
b0 ,
1+
b100010001 *
b0 )
b100000000 (
b10001 '
b0 &
x%
b100000000 $
b10001 #
0"
b100010001 !
$end
#1
1/
1P
1O
1B
1S
1R
1`
1_
1E
1K
1J
1V
1U
1[
1Z
1c
1b
1h
1g
b11 G
b11 H
b11 L
b11 M
b11 W
b11 X
b11 \
b11 ]
b11 d
b11 e
b11 i
b11 j
b1111 D
b1111 I
b1111 T
b1111 Y
b1111 a
b1111 f
b11111111 A
b11111111 Q
b11111111 ^
b1111111100010001 1
b1111111111111111 N
b11111111111111111111111100010001 !
b11111111111111111111111100010001 *
b11111111111111111111111100010001 .
b11111111111111111111111100010001 -
b11111111111111111111111100010001 o
b11111111111111111111111100010001 n
b11111111111111111111111100010001 t
b1111111111111111111111100010001 v
b100010001 ,
b100010001 )"
b11111111111111111111111100000000 q
b11111111111111111111111100000000 s
b11111111111111111111111011101110 ("
b100010001 '"
b1 m
b10 %"
b10 &
b10 )
#2
0/
02
0P
0O
05
0C
0B
0S
0R
0`
0_
0>
0F
0E
0K
0J
0V
0U
0[
0Z
0c
0b
0h
0g
b0 ?
b0 G
b0 H
b0 L
b0 M
b0 W
b0 X
b0 \
b0 ]
b0 d
b0 e
b0 i
b0 j
b0 <
b0 D
b0 I
b0 T
b0 Y
b0 a
b0 f
b1 4
b0 A
b0 Q
b0 ^
b1 1
b0 N
b1 !
b1 *
b1 .
b1 -
b1 o
b11 m
b1010 &
b1010 )
#3
1"
0+
00
03
06
09
b0 :
b0 7
b0 4
b0 1
b0 !
b0 *
b0 .
b0 -
b0 o
b1111111111111111111111100000000 u
b0 ~
b11111111111111111111111111101111 q
b11111111111111111111111111101111 s
b0 ""
b1111111111111111111111111101111 !"
b11111111111111111111111111101111 p
b11111111111111111111111111101111 z
b11111111111111111111111111101111 }
b100000000 w
b1111111111111111111111111101111 v
b11101111 n
b11101111 t
b11111111111111111111111111101110 y
b11111111111111111111111111101110 {
b100000000 #
b100000000 '
b100000000 k
b100000000 r
b100000000 #"
b10001 $
b10001 (
b10001 l
b10001 x
b10001 $"
#4
0"
1+
10
13
16
15
19
18
1>
1=
b11 :
b11 ;
b10 ?
b11 @
b1111 7
b1110 <
b11101111 4
b11101111 1
b11101111 !
b11101111 *
b11101111 .
b11101111 -
b11101111 o
b1 m
b10 &
b10 )
#5
1/
05
1P
0O
09
0>
1E
1V
1B
1S
0R
0`
0_
12
0K
1J
0U
0[
0b
0h
0g
b11 H
b1 W
1C
18
0=
0F
b0 L
b10 M
b0 X
b0 \
b0 e
b0 i
b0 j
b1000 I
b1 T
b0 Y
b0 a
b0 f
b0 :
b10 ;
b0 ?
b0 @
b0 G
b1 Q
b0 ^
b1111100001011011111111011111110 v
b1000 7
b0 <
b1100 D
b1 N
b1000 4
b10001100 A
b1 ~
b11111110011111000 u
b1111100001011111000101100000110 -
b1111100001011111000101100000110 o
b1100100000011011100110001011010 q
b1100100000011011100110001011010 s
b1000110000001000 1
b1 ""
b11011111100100011001110100101 !"
b10011011111100100011001110100110 p
b10011011111100100011001110100110 z
b10011011111100100011001110100110 }
b1111100001011111000101100000110 n
b1111100001011111000101100000110 t
b1111100001011011111111011111110 ("
b11000110000001000 ,
b11000110000001000 )"
b11000110000001000 !
b11000110000001000 *
b11000110000001000 .
b11000110000001000 w
b11000110000001000 '"
b0 m
b0 %"
b10011011111100100011001110100101 y
b10011011111100100011001110100101 {
b1111100001011011111111011111110 &"
b100 &
b100 )
b1100100000011011100110001011010 $
b1100100000011011100110001011010 (
b1100100000011011100110001011010 l
b1100100000011011100110001011010 x
b1100100000011011100110001011010 $"
b11000001000011011111010101100 #
b11000001000011011111010101100 '
b11000001000011011111010101100 k
b11000001000011011111010101100 r
b11000001000011011111010101100 #"
#6
1O
15
1R
1`
1_
19
1>
1=
1F
1K
1U
1[
1b
1h
1g
b10 :
b11 ;
b11 ?
b11 @
b10 G
b11 L
b11 M
b11 X
b10 \
b11 e
b11 i
b1 j
b1110 7
b1111 <
b1110 D
b1111 I
b1101 T
b10 Y
b1100 a
b111 f
b11111110 4
b11111110 A
b101101 Q
b1111100 ^
b1111111011111110 1
b111110000101101 N
b1111100001011011111111011111110 !
b1111100001011011111111011111110 *
b1111100001011011111111011111110 .
b1111100001011011111111011111110 ,
b1111100001011011111111011111110 )"
b1 %"
b101 &
b101 )
#7
1O
0E
0V
15
1R
1`
1_
19
1>
1=
1F
1K
1U
1[
1b
1h
1g
b0 H
b0 W
b10 :
b1 ;
b11 ?
b11 @
b10 G
b11 L
b1 M
b11 X
b10 \
b11 e
b11 i
b1 j
b11011111000000011111110101100 u
b10110100000100111111001001010010 -
b10110100000100111111001001010010 o
b110 7
b1111 <
b10 D
b111 I
b1100 T
b10 Y
b1100 a
b111 f
b10110100000100111111001001010010 n
b10110100000100111111001001010010 t
b11110110 4
b1110010 A
b101100 Q
b1111100 ^
b11000001000000011001010100100 w
b11011111100111011111110101110 v
b111001011110110 1
b111110000101100 N
b1111100001011000111001011110110 !
b1111100001011000111001011110110 *
b1111100001011000111001011110110 .
b10011011111100100011001110100110 q
b10011011111100100011001110100110 s
b10000011110100100000000100000001 ("
b1111100001011000111001011110110 '"
b1111100001011000111001011110110 ,
b1111100001011000111001011110110 )"
b1 m
b10 %"
b110 &
b110 )
#8
05
0B
08
0>
0=
0K
0J
1V
0U
1Z
1c
0b
0h
b1 :
b0 ;
b0 ?
b0 @
b1 G
b0 L
b0 M
b10 W
b0 X
b1 \
b11 ]
b11 d
b0 e
b0 i
b10 j
b1 7
b0 <
b1 D
b0 I
b10 T
b1101 Y
b11 a
b1000 f
b1 4
b1 A
b11010010 Q
b10000011 ^
b100000001 1
b1000001111010010 N
b10000011110100100000000100000001 !
b10000011110100100000000100000001 *
b10000011110100100000000100000001 .
b10000011110100100000000100000001 ,
b10000011110100100000000100000001 )"
b11 %"
b111 &
b111 )
